{
  "token": "MTM0NDQwNjcxMjg0MDM1NTg1.Cf8IdQ.z2e3pYcSutrw3LlTnBHO3oHAUBA",
  "owner_id" : "100543016825008128",
  "reports_channel_name" : "reports",
  "announcements_channel_name" : "anuncios",
  "excluded_channels" : [
    "music"
  ]
}
